<?xml version="1.0" standalone="no"?>
<!DOCTYPE svg PUBLIC "-//W3C//DTD SVG 1.1//EN" "http://www.w3.org/Graphics/SVG/1.1/DTD/svg11.dtd" >
<svg xmlns="http://www.w3.org/2000/svg">
<metadata>Generated by IcoMoon</metadata>
<defs>
<font id="icomoon" horiz-adv-x="1024">
<font-face units-per-em="1024" ascent="960" descent="-64" />
<missing-glyph horiz-adv-x="1024" />
<glyph unicode="&#x20;" horiz-adv-x="512" d="" />
<glyph unicode="&#xe900;" glyph-name="candidate-certificate" d="M600 448c29.6 0 54 22 58 50.8l53.6 40c6.4 4.8 8 14 2.8 20.4-4.8 6.4-14 8-20.4 2.8l-37.2-28c-5.6 18-22 30.8-42 30.8h-58.8c-24.4 0-44-19.6-44-44 0 24.4-19.6 44-44 44h-58.8c-19.6 0-36.4-13.2-42-30.8l-37.2 28c-6.4 4.8-15.6 3.6-20.4-2.8s-3.6-15.6 2.8-20.4l53.6-40c4-28.4 28.4-50.8 58-50.8h29.2c32.4 0 58.8 26.4 58.8 58.8 0-32.4 26.4-58.8 58.8-58.8h29.2zM482.8 506.8c0-16-13.2-29.2-29.2-29.2h-29.6c-16 0-29.2 13.2-29.2 29.2v14.8c0 8 6.4 14.8 14.8 14.8h58.4c8 0 14.8-6.4 14.8-14.8v-14.8zM541.2 506.8v14.8c0 8 6.4 14.8 14.8 14.8h58.8c8 0 14.8-6.4 14.8-14.8v-14.8c0-16-13.2-29.2-29.2-29.2h-29.2c-16.8-0.4-30 12.8-30 29.2zM951.6 26.4l-14.8 59.6c-7.6 22.8-52 95.2-307.2 97.2v15.2c0 8-6.4 14.8-14.8 14.8s-14.8-6.4-14.8-14.8v-29.2c0 0 0 0 0-0.4 0 0 0 0 0-0.4 0-8.8-3.2-87.6-88-87.6s-88 79.2-88 88v29.2c0 8-6.4 14.8-14.8 14.8-8 0-14.8-6.4-14.8-14.8v-14.8c-190-1.6-285.2-32-307.6-98.8l-14.8-58.8c-2-8 2.8-16 10.8-17.6 8-2 16 2.8 17.6 10.8l14.4 57.6c17.2 51.2 108.8 76.8 280.4 78 5.2-42 34-102.8 116.4-102.8s111.2 60.4 116.4 102c201.2-1.6 270.8-48.8 280-76.4l14.8-58.8c1.6-6.8 7.6-11.2 14.4-11.2 1.2 0 2.4 0 3.6 0.4 8 2.8 12.8 10.8 10.8 18.8zM172.8 814.8l337.2-44c0.8 0 1.2 0 2 0s1.2 0 2 0l320.8 42v-50.8c-9.2-10.4-29.2-36-29.2-64.4 0-32.4 26.4-44 44-44s44 11.6 44 44c0 28.4-20 54-29.2 64.4v67.2c0 2-0.4 3.6-1.2 5.6-0.4 0.8-0.8 1.2-0.8 1.6-0.4 1.2-1.2 2-2 2.8-0.4 0.4-1.2 0.8-1.6 1.2-0.8 0.8-1.6 1.2-2.8 1.6-0.8 0.4-1.6 0.4-2.4 0.8s-1.2 0.8-2 0.8l-337.2 44c-1.2 0-2.4 0-3.6 0l-338-43.6c-7.2-0.8-12.8-7.2-12.8-14.4 0-7.6 5.6-14 12.8-14.8zM864 697.2c0-11.6-8-14.4-14.8-14.8-6.8 0.4-14.8 2.8-14.8 14.8s7.6 25.6 14.8 35.6c7.2-9.6 14.8-23.2 14.8-35.6zM512 858.4l224-29.2-224-29.2-224 29.2 224 29.2zM546 356c-0.4-0.4-11.6-10.4-34-10.4-22 0-33.2 10-33.6 10.4-5.6 5.6-14.8 5.6-20.4 0s-5.6-15.2 0-20.8c2-2 20-18.8 54.4-18.8s52.4 17.2 54.4 18.8c5.6 5.6 5.6 14.8 0 20.4-6 5.6-15.2 5.6-20.8 0.4zM277.2 592c-17.2-6-29.2-22.4-29.2-41.6v-58.4c0-20.4 14-37.6 32.8-42.8 8-23.2 29.6-86 42-110.8 23.2-46.4 89.2-125.6 189.2-125.6s166 78.8 189.2 125.6c12.4 24.8 34 87.6 42 110.8 18.8 4.8 32.8 22 32.8 42.8v58.8c0 19.2-12.4 35.6-29.2 41.6v17.2c0 8-6.4 14.8-14.8 14.8-8 0-14.8-6.4-14.8-14.8v-29.6c0-8 6.4-14.8 14.8-14.8 8 0 14.8-6.4 14.8-14.8v-58.4c0-8-6.4-14.8-14.8-14.8-6.4 0-12-4-14-10-0.4-0.8-29.2-87.2-43.2-115.6-2.4-4.4-56-109.2-162.8-109.2s-160.8 105.2-162.8 109.6c-14 28-42.8 114.4-43.2 115.6-2 6-7.6 10-14 10-8 0-14.8 6.4-14.8 14.8v58.8c0 8 6.4 14.8 14.8 14.8 8 0 14.8 6.4 14.8 14.8v29.2c0 8-6.4 14.8-14.8 14.8s-14.8-6.4-14.8-14.8v-18zM292 785.2c-8 0-14.8-6.4-14.8-14.8v-102.4c0-5.6 3.2-10.8 8-13.2 3.6-2 92.8-45.6 226.4-45.6s222.8 43.6 226.4 45.6c4.8 2.4 8 7.6 8 13.2v102.8c0 8-6.4 14.8-14.8 14.8s-14.8-6.4-14.8-14.8v-93.2c-24.4-10.4-101.2-38.8-205.2-38.8s-181.2 28.4-205.2 38.8v93.2c0.8 8-6 14.4-14 14.4z" />
<glyph unicode="&#xe901;" glyph-name="exam-question-bank" d="M819.6 880h-563.6c-43.6 0-79.2-35.6-79.2-79.2v-722c0-43.6 35.6-79.2 79.2-79.2h563.6c28.4 0 51.6 23.2 51.6 51.6v777.2c0 28.4-23.2 51.6-51.6 51.6zM256 845.6h563.6c9.6 0 17.2-7.6 17.2-17.2v-10.4h-406c-9.6 0-17.2-7.6-17.2-17.2s7.6-17.2 17.2-17.2h406v-30.4c-5.2 2-11.2 2.8-17.2 2.8h-563.6c-24.8 0-44.8 20-44.8 44.8s20 44.8 44.8 44.8zM610 721.6h103.2v-97.6c0-9.6 7.6-17.2 17.2-17.2s17.2 7.6 17.2 17.2v98h72c9.6 0 17.2-7.6 17.2-17.2v-653.2c0-9.6-7.6-17.2-17.2-17.2h-498.4v417.6c0 9.6-7.6 17.2-17.2 17.2s-17.2-7.6-17.2-17.2v-417.6h-30.8c-24.8 0-44.8 20-44.8 44.8v656.4c12.8-8.8 28-14 44.8-14h319.6zM498.8 520l-14.4 10.8c4.4 9.2 6.8 19.6 6.8 30.4v24.4c0 38.8-31.6 70.4-70.4 70.4s-70.4-31.6-70.4-70.4v-24.4c0-38.8 31.6-70.4 70.4-70.4 16.8 0 32.4 6 44.4 16l15.2-11.2c2.8-2 6-2.8 9.2-2.8 4.8 0 9.2 2 12.4 6.4 4.8 6 3.6 15.6-3.2 20.8zM460.4 561.2c0-4-0.8-8-1.6-12l-16 12c-6.8 5.2-16.4 3.6-21.2-3.2-5.2-6.8-3.6-16.4 3.2-21.2l14.8-10.8c-5.6-2.8-11.6-4.4-18.4-4.4-22 0-39.6 18-39.6 39.6v24.4c0 22 18 39.6 39.6 39.6s39.6-18 39.6-39.6l-0.4-24.4zM775.6 128l-53.2 125.6c-2.4 5.6-7.6 9.2-13.6 9.2s-11.6-3.6-13.6-9.2l-53.2-125.6c-3.2-7.6 0.4-16.4 8-19.6s16.4 0.4 19.6 8l7.6 17.6h63.6l7.6-17.6c2.4-5.6 8-9.2 13.6-9.2 2 0 4 0.4 6 1.2 7.2 3.2 10.8 12 7.6 19.6zM689.6 164l19.2 45.2 19.2-45.2h-38.4zM536.8 438.4c7.2 2 14.4 2 21.6 0.8s14.4-4.8 19.6-10.4c6-5.6 9.6-13.6 10-21.6 0.8-8-1.6-16.4-6.4-22.8-6.4-9.2-15.6-15.6-25.2-20.4 10-12.8 20-25.2 30-38 3.6 7.2 6.4 15.2 8 23.2 6.8-1.6 14-2.8 20.8-4.4 0 0 0.4 0 0.8-0.4-3.2-12.8-7.6-25.2-14.8-36 7.2-9.6 16-18.4 26-25.6-4.4-5.6-9.2-10.8-14-16.4-10 6.4-18 14.8-25.6 23.6-7.6-8.4-17.2-15.6-28.4-19.2-7.2-2.4-15.2-3.6-22.8-3.2-6.8 0.4-13.6 1.6-20 4-5.2 2.4-10.4 5.6-14.4 9.6-6 5.6-10.8 12.8-13.2 20.8-2.8 9.6-2.8 20 0.4 29.2 2.8 8 8.4 15.2 14.8 20.8 6.8 5.6 14.4 10.4 22 14-4.4 5.2-9.2 10.8-12.8 16.8-3.6 5.6-6 12.4-6 19.2-0.4 6.4 1.6 13.2 4.8 18.8 6.4 8.4 15.2 15.2 24.8 17.6zM542 422c-6-2-11.2-7.2-12.4-13.6-0.8-3.2-0.4-6.8 0.8-10 1.6-4.4 4.8-8.4 8-12 2.8-3.2 5.2-6.4 8-9.2 2.4 1.6 4.8 2.8 7.2 4.8 4.4 3.2 8.4 6.4 11.2 11.2 2.8 5.2 3.6 11.6 2 17.2-1.6 6-6.4 10.8-12 12.4-4.4 0.4-8.8 0.4-12.8-0.8zM517.2 337.2c-4.4-5.2-7.6-11.2-8-18-0.4-6 1.6-11.6 4.4-16.8 2.8-4.8 6-9.6 10.8-12.4 5.6-3.6 12-4.8 18.4-4 6.8 0.4 13.2 3.6 18.8 7.2 5.2 3.6 10 8 13.6 13.2-12.4 15.6-25.2 31.2-37.6 46.4-7.6-4.8-14.4-9.6-20.4-15.6z" />
<glyph unicode="&#xe902;" glyph-name="exam-question-settings" d="M78 799.2l58.8-102.8c2-3.6 5.2-6 9.2-6.8l54.4-13.6 187.6-187.6 20.8 20.8-190.4 190.4c-2 2-4.4 3.2-6.8 4l-52.4 13.2-50.4 87.6 42.8 42.8 87.6-50 13.2-52.4c0.8-2.4 2-4.8 4-6.8l190.4-190.4 20.8 20.8-187.6 187.2-13.6 54.8c-0.8 4-3.6 7.2-6.8 9.2l-102.8 58.4c-5.6 3.2-12.8 2.4-17.6-2.4l-58.8-58.8c-4.8-4.4-5.6-11.6-2.4-17.6zM687.6 591.2l-322.4-322.4-20.8 20.8 322.4 322.4 20.8-20.8zM308.4 257.2c-2.8 4.4-7.6 7.2-12.4 7.2h-88c-5.2 0-10-2.8-12.4-7.2l-44-73.2c-2.8-4.8-2.8-10.4 0-15.2l44-73.2c2.8-4.4 7.6-7.2 12.4-7.2h88c5.2 0 10 2.8 12.4 7.2l44 73.2c2.8 4.8 2.8 10.4 0 15.2l-44 73.2zM287.6 117.6h-71.2l-35.2 58.8 35.2 58.8h71.2l35.2-58.8-35.2-58.8zM779.6 528c96.8-0.4 175.6 78 176 174.8 0 14.8-1.6 29.6-5.2 43.6-2 8-10 12.8-17.6 10.8-2.4-0.8-4.8-2-6.8-4l-91.2-91.2-72.4 24-24 72.4 91.2 91.2c5.6 5.6 5.6 15.2 0 20.8-2 2-4.4 3.2-6.8 4-94 23.6-189.2-33.2-213.2-126.8-3.6-14.4-5.6-28.8-5.2-43.6 0-11.6 1.2-23.2 3.6-34.4l-321.2-321.2c-11.2 2.4-22.8 3.6-34.4 3.6-97.2 0-176-78.8-176-176s78.8-176 176-176c97.2 0 176 78.8 176 176 0 11.6-1.2 23.2-3.6 34.4l76.8 76.8 33.6-33.6c5.6-5.6 15.2-5.6 20.8 0l7.2 7.2c6.4 6.4 16.8 6.4 23.2 0s6.4-16.8 0-23.2c0 0 0 0 0 0l-7.2-7.2c-5.6-5.6-5.6-15.2 0-20.8l174.8-174.8c46-46.4 120.8-46.8 167.2-0.8s46.8 120.8 0.8 167.2c-0.4 0.4-0.4 0.4-0.8 0.8l-174.8 174.8c-5.6 5.6-15.2 5.6-20.8 0l-7.2-7.2c-6.4-6.4-16.8-6.4-23.2 0s-6.4 16.8 0 23.2c0 0 0 0 0 0l7.2 7.2c5.6 5.6 5.6 15.2 0 20.8l-33.6 33.6 76.8 76.8c11.2-2 22.4-3.2 34-3.2zM837.2 29.6c-10.8 0-21.2 2-31.2 5.6l114.4 114.4c17.2-46-6-97.2-52-114.4-9.6-3.6-20.4-5.6-31.2-5.6zM671.2 410.8c-16.4-19.2-13.6-48.4 5.6-64.4 17.2-14.4 42-14.4 58.8 0l164.4-164.8c1.6-1.6 3.6-3.6 5.2-5.6l-125.2-125.2c-2 1.6-4 3.2-5.6 5.2l-164.8 164.8c16.4 19.2 13.6 48.4-5.6 64.4-17.2 14.4-42 14.4-58.8 0l-23.6 23.6 126 126 23.6-24zM730.4 558l-332.4-332.4c-3.6-3.6-5.2-8.8-4-14 20-78.8-27.6-159.2-106.8-179.6-78.8-20-159.2 28-179.2 106.8s27.6 159.2 106.8 179.6c24 6 48.8 6 72.8 0 4.8-1.2 10.4 0.4 14 4l332.4 332.4c3.6 3.6 5.2 8.8 4 14-20 78 27.2 157.6 105.2 177.6 14.8 3.6 30 5.2 45.2 4.4l-77.2-77.2c-4-4-5.2-9.6-3.6-14.8l29.2-88c1.6-4.4 4.8-8 9.2-9.2l88-29.2c5.2-1.6 11.2-0.4 14.8 3.6l77.2 77.2c0-2.8 0.4-5.6 0.4-8.4 0.4-80.4-64.4-146-145.2-146.8-12.4 0-24.8 1.6-36.8 4.4-5.2 0.8-10.4-0.4-14-4.4v0 0zM834 142.8l-20.8-20.8-146.4 146.4 20.8 20.8 146.4-146.4z" />
<glyph unicode="&#xe903;" glyph-name="exam-schedule" d="M920 858h-792c-24.4 0-44-19.6-44-44v-748c0-24.4 19.6-44 44-44h792c24.4 0 44 19.6 44 44v748c0 24.4-19.6 44-44 44zM934.8 66c0-8-6.4-14.8-14.8-14.8h-792c-8 0-14.8 6.4-14.8 14.8v630.8h704c8 0 14.8 6.4 14.8 14.8 0 8-6.4 14.8-14.8 14.8h-704v88c0 8 6.4 14.8 14.8 14.8h792c8 0 14.8-6.4 14.8-14.8v-748.4zM161.6 795.2c-4.4-4-5.6-10.4-3.2-16s7.6-9.2 13.6-9.2c6 0 11.2 3.6 13.6 9.2s1.2 12-3.2 16c-6 5.2-14.8 5.2-20.8 0zM278.8 795.2c-5.6-5.6-5.6-15.2 0-20.8s14.8-5.6 20.8 0c5.6 5.6 5.6 14.8 0 20.8-5.6 5.2-14.8 5.2-20.8 0zM396.4 795.2c-5.6-5.6-5.6-15.2 0-20.8s14.8-5.6 20.8 0c5.6 5.6 5.6 14.8 0 20.8-6 5.2-15.2 5.2-20.8 0zM513.6 795.2c-5.6-5.6-5.6-15.2 0-20.8s14.8-5.6 20.8 0c5.6 5.6 5.6 14.8 0 20.8-6 5.2-14.8 5.2-20.8 0zM630.8 795.2c-5.6-5.6-5.6-15.2 0-20.8s14.8-5.6 20.8 0c5.6 5.6 5.6 14.8 0 20.8-5.6 5.2-14.8 5.2-20.8 0zM748.4 795.2c-5.6-5.6-5.6-15.2 0-20.8s14.8-5.6 20.8 0c5.6 5.6 5.6 14.8 0 20.8-6 5.2-15.2 5.2-20.8 0zM865.6 795.2c-5.6-5.6-5.6-15.2 0-20.8s14.8-5.6 20.8 0c5.6 5.6 5.6 14.8 0 20.8-6 5.2-14.8 5.2-20.8 0zM846.8 623.2h-645.6c-16.4 0-29.2-13.2-29.2-29.2v-440c0-16.4 13.2-29.2 29.2-29.2h645.2c16.4 0 29.2 13.2 29.2 29.2v440c0.4 16.4-12.8 29.2-28.8 29.2zM348 154h-146.8v88h146.8v-88zM348 271.2h-146.8v88h146.8v-88zM348 388.8h-146.8v88h146.8v-88zM348 506h-146.8v88h146.8v-88zM509.2 154h-132v88h132v-88zM509.2 271.2h-132v88h132v-88zM509.2 388.8h-132v88h132v-88zM509.2 506h-132v88h132v-88zM670.8 154h-132v88h132v-88zM670.8 271.2h-132v88h132v-88zM670.8 388.8h-132v88h132v-88zM670.8 506h-132v88h132v-88zM846.8 154h-146.8v88h146.8v-88zM846.8 271.2h-146.8v88h146.8v-88zM846.8 388.8h-146.8v88h146.8v-88zM846.8 506h-146.8v88h146.8v-88zM632.8 335.6l-32-25.6-17.6 17.6c-2.8 2.8-7.6 2.8-10.4 0s-2.8-7.6 0-10.4l22-22c2.8-2.8 6.8-2.8 10-0.4l36.8 29.6c3.2 2.4 3.6 7.2 1.2 10.4-2 2.8-6.8 3.2-10 0.8v0zM469.6 452.8l-32-25.6-17.6 17.6c-2.8 2.8-7.6 2.8-10.4 0s-2.8-7.6 0-10.4l22-22c2.8-2.8 6.8-2.8 10-0.4l36.8 29.6c3.2 2.4 3.6 7.2 1.2 10.4s-6.8 3.6-10 0.8v0z" />
<glyph unicode="&#xe904;" glyph-name="reports" d="M460 743.2c-8.4 0-15.2-8-15.2-18 0-0.8 0-1.6 0-2.4l-29.6-14.4c-2.8 4.8-7.2 7.6-12 7.6-8.4 0-15.2-8-15.2-18 0-2.8 0.8-5.6 1.6-8l-37.6-40.8c-2.4 2-5.2 3.2-8.4 3.2-4.4 0-8.4-2.4-11.2-6l-38 24.4c0.4 1.2 0.4 2.8 0.4 4 0 10-6.8 18-15.2 18s-15.2-8-15.2-18 6.8-18 15.2-18c4.4 0 8.4 2.4 11.2 6l38-24.4c-0.4-1.2-0.4-2.8-0.4-4 0-10 6.8-18 15.2-18s15.2 8 15.2 18c0 2.8-0.8 5.6-1.6 8l38.4 40.4c2.4-2 5.2-3.2 8.4-3.2 8.4 0 15.2 8 15.2 18 0 0.8 0 1.6 0 2.4l29.6 14.4c2.8-4.8 7.2-7.6 12-7.6 8.4 0 15.2 8 15.2 18s-8 18.4-16 18.4zM286.4 670.8c-1.2-2.8-4-4.8-6.8-4.8-4 0-7.6 4-7.6 9.2s3.2 9.2 7.6 9.2 7.6-4 7.6-9.2c0-1.6-0.4-3.2-0.8-4.4zM343.6 625.2c-4 0-7.6 4-7.6 9.2 0 1.6 0.4 2.8 0.8 4.4 1.2 2.8 4 4.8 6.8 4.8 2 0 4.4-1.2 5.6-3.2 1.2-1.6 2-3.6 2-6-0.4-5.2-3.6-9.2-7.6-9.2zM403.6 688.8c-2 0-4.4 1.2-5.6 3.2-1.2 1.6-2 3.6-2 6 0 5.2 3.2 9.2 7.6 9.2 3.2 0 6-2.4 6.8-5.6 0.4-1.2 0.4-2 0.4-3.2 0-5.6-3.2-9.6-7.2-9.6zM460 716c-3.2 0-6 2.4-6.8 5.6-0.4 1.2-0.4 2-0.4 3.2 0 5.2 3.2 9.2 7.6 9.2 4 0 7.6-4 7.6-9.2s-4-8.8-8-8.8zM232 562c0-3.6-3.2-6.8-6.8-6.8v0c-3.6 0-6.8 3.2-6.8 6.8v211.6c0 3.6 3.2 6.8 6.8 6.8v0c3.6 0 6.8-3.2 6.8-6.8v-211.6zM225.2 555.2c-3.6 0-6.8 3.2-6.8 6.8v0c0 3.6 3.2 6.8 6.8 6.8h211.6c3.6 0 6.8-3.2 6.8-6.8v0c0-3.6-3.2-6.8-6.8-6.8h-211.6zM789.6 370.4c-21.2 15.2-47.2 24-75.2 24-4.8 0-8.8-4-8.8-8.8v-120.8c0-4.8 4-8.8 8.8-8.8h120.8c4.8 0 8.8 4 8.8 8.8 0 37.2-15.6 70.4-40.8 94.4l-13.6 11.2zM770.4 138c22.4 23.2 36.4 55.2 36.4 90 0 4.8-4 8.8-8.8 8.8h-112v112c0 4.8-4 8.8-8.8 8.8-71.6 0-129.6-58-129.6-129.6s58-129.6 129.6-129.6c30 0 58 10.4 80 27.6l13.2 12zM748 141.2c-19.2-15.6-44-25.2-70.8-25.2-62 0-112 50.4-112 112 0 58.8 45.6 107.2 103.2 111.6v-111.6c0-4.8 4-8.8 8.8-8.8h111.6c-2-25.2-12.4-48-28-66l-12.8-12zM84 880v-880h880v880h-880zM934.8 29.2h-821.6v821.6h821.2v-821.6zM844 568.8c0 6-4.8 11.2-11.2 11.2h-66.4c-6 0-11.2-4.8-11.2-11.2s4.8-11.2 11.2-11.2h66.4c6 0 11.2 4.8 11.2 11.2zM832.8 712h-88.4c-6 0-11.2-4.8-11.2-11.2s4.8-11.2 11.2-11.2h88.4c6 0 11.2 4.8 11.2 11.2s-5.2 11.2-11.2 11.2zM711.6 701.2c0 6-4.8 11.2-11.2 11.2h-66.4c-6 0-11.2-4.8-11.2-11.2 0-6 4.8-11.2 11.2-11.2h66.4c6 0 11.2 4.8 11.2 11.2zM634 646c-6 0-11.2-4.8-11.2-11.2 0-6 4.8-11.2 11.2-11.2h22c6 0 11.2 4.8 11.2 11.2 0 6-4.8 11.2-11.2 11.2h-22zM634 756.4h110.4c6 0 11.2 4.8 11.2 11.2s-4.8 11.2-11.2 11.2h-110.4c-6 0-11.2-4.8-11.2-11.2 0.4-6.4 5.2-11.2 11.2-11.2zM700.4 624h110.4c6 0 11.2 4.8 11.2 11.2 0 6-4.8 11.2-11.2 11.2h-110.4c-6 0-11.2-4.8-11.2-11.2s5.2-11.2 11.2-11.2zM722.4 579.6h-88.4c-6 0-11.2-4.8-11.2-11.2s4.8-11.2 11.2-11.2h88.4c6 0 11.2 4.8 11.2 11.2s-5.2 11.2-11.2 11.2zM441.2 157.2c0 6-4.8 11.2-11.2 11.2h-66c-6 0-11.2-4.8-11.2-11.2s4.8-11.2 11.2-11.2h66.4c5.6 0 10.8 5.2 10.8 11.2zM430 300.8h-88c-6 0-11.2-4.8-11.2-11.2 0-6 4.8-11.2 11.2-11.2h88.4c6 0 11.2 4.8 11.2 11.2-0.4 6-5.6 11.2-11.6 11.2zM308.8 289.6c0 6-4.8 11.2-11.2 11.2h-66c-6 0-11.2-4.8-11.2-11.2 0-6 4.8-11.2 11.2-11.2h66.4c5.6 0 10.8 5.2 10.8 11.2zM231.6 234.4c-6 0-11.2-4.8-11.2-11.2 0-6 4.8-11.2 11.2-11.2h22c6 0 11.2 4.8 11.2 11.2 0 6-4.8 11.2-11.2 11.2h-22zM231.6 344.8h110.4c6 0 11.2 4.8 11.2 11.2s-4.8 11.2-11.2 11.2h-110.4c-6 0-11.2-4.8-11.2-11.2s4.8-11.2 11.2-11.2zM297.6 212.4h110.4c6 0 11.2 4.8 11.2 11.2s-4.8 11.2-11.2 11.2h-110.4c-6 0-11.2-4.8-11.2-11.2s5.2-11.2 11.2-11.2zM319.6 168h-88c-6 0-11.2-4.8-11.2-11.2s4.8-11.2 11.2-11.2h88.4c6 0 11.2 4.8 11.2 11.2s-5.2 11.2-11.6 11.2z" />
<glyph unicode="&#xe905;" glyph-name="traning-module-contain" d="M337.2 678.8h-146.4c-8 0-14.8-6.4-14.8-14.8v-293.2c0-8 6.4-14.8 14.8-14.8 8 0 14.8 6.4 14.8 14.8v278.4h132c40.4 0 73.2 32.8 73.2 73.2v73.6c0 8-6.4 14.8-14.8 14.8s-14.8-6.8-14.8-14.8v-73.2c0-24.4-19.6-44-44-44zM134.8 200.4l192-192c2.8-2.8 6.4-4.4 10.4-4.4h88c8 0 14.8 6.4 14.8 14.8v88c0 4-1.6 7.6-4.4 10.4l-192 192c-22.4 22.4-56.8 22.4-79.6 0l-29.2-29.2c-23.2-23.6-23.2-56 0-79.6zM390 121.2l-23.2-23.2-127.6 127.6 23.2 23.2 127.6-127.6zM343.6 33.2l67.2 67.2v-67.2h-67.2zM195.2 181.6l23.2 23.2 127.6-127.6-23.2-23.2-127.6 127.6zM155.6 259.2l29.2 29.2c11.6 11.6 26.4 11.6 38 0l18.8-18.8-67.2-67.2-18.8 18.8c-12 12-12 26 0 38zM469.2 18.8c0-8 6.4-14.8 14.8-14.8h381.2c40.4 0 73.2 32.8 73.2 73.2v733.6c0 40.4-32.8 73.2-73.2 73.2h-469.2c-4 0-7.6-1.6-10.4-4.4l-146.8-146.4c-5.6-5.6-5.6-15.2 0-20.8s15.2-5.6 20.8 0l142.4 142.4h463.2c24.4 0 44-19.6 44-44v-733.2c0-24.4-19.6-44-44-44h-381.2c-8-0.4-14.8-6.8-14.8-14.8zM807.2 389.2c0 6.4-5.2 11.6-11.6 11.6h-70.4c-6.4 0-11.6-5.2-11.6-11.6s5.2-11.6 11.6-11.6h70.4c6 0 11.6 5.2 11.6 11.6zM795.2 541.6h-93.6c-6.4 0-11.6-5.2-11.6-11.6s5.2-11.6 11.6-11.6h93.6c6.4 0 11.6 5.2 11.6 11.6 0.4 6.4-5.2 11.6-11.6 11.6zM666.4 529.6c0 6.4-5.2 11.6-11.6 11.6h-70.4c-6.4 0-11.6-5.2-11.6-11.6s5.2-11.6 11.6-11.6h70.4c6.4 0 11.6 5.2 11.6 11.6zM584.4 471.2c-6.4 0-11.6-5.2-11.6-11.6s5.2-11.6 11.6-11.6h23.6c6.4 0 11.6 5.2 11.6 11.6s-5.2 11.6-11.6 11.6h-23.6zM584.4 588.4h117.2c6.4 0 11.6 5.2 11.6 11.6s-5.2 12-11.6 12h-117.2c-6.4 0-11.6-5.2-11.6-11.6 0-6.8 5.2-12 11.6-12zM654.8 447.6h117.2c6.4 0 11.6 5.2 11.6 11.6s-5.2 11.6-11.6 11.6h-117.2c-6.4 0-11.6-5.2-11.6-11.6s5.2-11.6 11.6-11.6zM678 400.8h-93.6c-6.4 0-11.6-5.2-11.6-11.6s5.2-11.6 11.6-11.6h93.6c6.4 0 11.6 5.2 11.6 11.6 0.4 6.4-4.8 11.6-11.6 11.6zM531.2 635.6c0 7.2-6 12.8-12.8 12.8h-77.6c-7.2 0-12.8-6-12.8-12.8v-77.6c0-7.2 6-12.8 12.8-12.8h77.6c7.2 0 12.8 6 12.8 12.8v77.6zM505.2 570.8h-52v52h52v-52zM457.2 393.2c2.4-2.4 5.6-3.6 9.2-3.6 0.4 0 0.8 0 1.2 0 4 0.4 7.2 2.4 9.6 5.6l52 77.6c4 6 2.4 14-3.6 18s-14 2.4-18-3.6l-43.2-64.8-14.8 14.8c-5.2 5.2-13.2 5.2-18.4 0s-5.2-13.2 0-18.4l26-25.6zM564 304.8h-122.4c-8 0-14-6.4-14-14v-84.8c0-8 6.4-14 14-14h122.4c8 0 14 6.4 14 14v84.8c0 7.6-6.4 14-14 14zM441.6 295.2h122.4c2.8 0 4.8-2 4.8-4.8v-64l-43.6 43.6c-2 2-4.8 2-6.8 0l-32-32-13.2 13.2c-2 2-4.8 2-6.8 0l-29.6-29.6v68.8c0 2.8 2 4.8 4.8 4.8zM564 201.2h-122.4c-2.8 0-4.8 2-4.8 4.8v2.8l32.8 32.8 20.4-20.4c0.8-0.8 2-1.2 3.2-1.2h18.8c2.8 0 4.8 2 4.8 4.8s-2 4.8-4.8 4.8h-16.8l-2.4 2.4 28.8 28.8 47.2-47.2v-7.6c0-2.8-2.4-4.8-4.8-4.8z" />
</font></defs></svg>